2019-03-30 16:46:34 1553960794 DEBUG: URL to check 2
2019-03-30 16:46:34 1553960794 DEBUG: Checking E-Transactions URL https://tpeweb.e-transactions.fr/load.html
2019-03-30 16:46:35 1553960794 DEBUG:   Valid url found: https://tpeweb.e-transactions.fr/cgi/MYframepagepaiement_ip.cgi
2019-03-30 16:46:35 1553960794 DEBUG: Cart 14565: Redirecting customer to E-Transactions (CARTE, CB).
2019-03-30 16:47:37 1553960857 DEBUG: Call params: M=22000&R=14565%20-%20Amandine%20%20Rio&T=116423403&A=784555&B=0&C=Visa&D=2109&E=00000&F=Y&G=O&I=FRA&J=90&N=497804&O=Y&P=CARTE&Q=16%3A46%3A35&S=981444032&W=30032019&Y=FRA&Z=0-0&K=RHql0%2FZJJRJlKhOcTXdojtHqkf9Pja0Vbzhe1HmF0jORB64mXp%2FvbmVn%2Be5AiuEaHWc1dKFZUaQRy%2BhzinpBsFGbD9499KWjLlN5jjiqL9OOiLsAz1lYIDI%2BdOwbjRDncBQdwpFdiLlowAqld4rCp6d6VDGbjhmiQuTot2xX08Q%3D
2019-03-30 16:47:43 1553960857 DEBUG: Cart 14565: Mixed IPN
2019-03-30 16:47:43 1553960857 DEBUG: Cart 14565: First payment
2019-03-30 16:47:43 1553960857 DEBUG: Cart 14565: Validating order
2019-03-30 15:47:44 1553960857 DEBUG: Cart 14565: Order 2570 validated, creating details
2019-03-30 15:47:44 1553960857 DEBUG: Cart 14565: Order 2570 / Le paiement a été autorisé par E-Transactions.
Premier paiement de 220.00 € réalisé.
Tous les paiements sont réalisés.

