2019-03-12 13:47:20 1552394840 DEBUG: URL to check 2
2019-03-12 13:47:20 1552394840 DEBUG: Checking E-Transactions URL https://tpeweb.e-transactions.fr/load.html
2019-03-12 13:47:20 1552394840 DEBUG:   Valid url found: https://tpeweb.e-transactions.fr/cgi/MYchoix_pagepaiement.cgi
2019-03-12 13:47:20 1552394840 DEBUG: Cart 14412: Redirecting customer to E-Transactions (CARTE, CB).
2019-03-12 13:48:10 1552394890 DEBUG: Call params: M=9000&R=14412%20-%20Lucas%20barjou&T=110117089&A=215556&B=0&C=Visa&D=2111&E=00000&F=Y&G=O&I=FRA&J=30&N=497160&O=Y&P=3DSECURE&Q=13%3A47%3A20&S=976133449&W=12032019&Y=FRA&Z=0-0&K=gZJoLY5y%2BfThzOFf%2FI7JkO60suTEsLSRed52y%2Fqxo%2FghcBIRePgVUo7iH%2FDi40va%2Bakd%2Bcm1sJWLPZEiEhSHv%2FM1AhhbhJ%2B0DV7UqZnf7D6JGimT%2BTvLifZac6olJv88jT3f0%2Fy2A%2B9fnAd%2B0GpYH1wuNHWzVs1tRy2zlImA3B4%3D
2019-03-12 13:48:16 1552394890 DEBUG: Cart 14412: Mixed IPN
2019-03-12 13:48:16 1552394890 DEBUG: Cart 14412: First payment
2019-03-12 13:48:16 1552394890 DEBUG: Cart 14412: Validating order
2019-03-12 12:48:17 1552394890 DEBUG: Cart 14412: Order 2540 validated, creating details
2019-03-12 12:48:17 1552394890 DEBUG: Cart 14412: Order 2540 / Le paiement a été autorisé par E-Transactions.
Premier paiement de 90.00 € réalisé.
Tous les paiements sont réalisés.

2019-03-12 13:48:26 1552394906 DEBUG: Cart 14412: Customer is back from E-Transactions payment page. Payment success.
2019-03-12 20:43:47 1552419827 DEBUG: URL to check 2
2019-03-12 20:43:47 1552419827 DEBUG: Checking E-Transactions URL https://tpeweb.e-transactions.fr/load.html
2019-03-12 20:43:47 1552419827 DEBUG:   Valid url found: https://tpeweb.e-transactions.fr/cgi/MYchoix_pagepaiement.cgi
2019-03-12 20:43:47 1552419827 DEBUG: Cart 14416: Redirecting customer to E-Transactions (CARTE, VISA).
2019-03-12 20:44:56 1552419896 DEBUG: URL to check 2
2019-03-12 20:44:56 1552419896 DEBUG: Checking E-Transactions URL https://tpeweb.e-transactions.fr/load.html
2019-03-12 20:44:56 1552419896 DEBUG:   Valid url found: https://tpeweb.e-transactions.fr/cgi/MYchoix_pagepaiement.cgi
2019-03-12 20:44:56 1552419896 DEBUG: Cart 14416: Redirecting customer to E-Transactions (PAYPAL, PAYPAL).
2019-03-12 20:45:13 1552419913 DEBUG: URL to check 2
2019-03-12 20:45:13 1552419913 DEBUG: Checking E-Transactions URL https://tpeweb.e-transactions.fr/load.html
2019-03-12 20:45:13 1552419913 DEBUG:   Valid url found: https://tpeweb.e-transactions.fr/cgi/MYchoix_pagepaiement.cgi
2019-03-12 20:45:13 1552419913 DEBUG: Cart 14416: Redirecting customer to E-Transactions (PAYPAL, PAYPAL).
