2019-06-19 10:48:28 1560934108 DEBUG: URL to check 2
2019-06-19 10:48:28 1560934108 DEBUG: Checking E-Transactions URL https://tpeweb.e-transactions.fr/load.html
2019-06-19 10:48:28 1560934108 DEBUG:   Valid url found: https://tpeweb.e-transactions.fr/cgi/MYchoix_pagepaiement.cgi
2019-06-19 10:48:28 1560934108 DEBUG: Cart 15272: Redirecting customer to E-Transactions (CARTE, VISA).
2019-06-19 10:56:04 1560934564 DEBUG: Call params: M=16700&R=15272%20-%20Zoe%20CUNY&T=512055787&A=434527&B=0&C=Visa&D=2009&E=00000&F=Y&G=O&I=FRA&J=09&N=497202&O=Y&P=3DSECURE&Q=10%3A52%3A58&S=104271431&W=19062019&Y=FRA&Z=0-0&K=fis%2Fask1J6pWBFA9HWy5dkdivIVxZrLX5LU9EX3Pivgw2xiE2xUkzSHSztZqgMFR4zo%2FXhWeraz%2BGr0pSmftHMAUtnvmNsFpwEATig%2BJ9KknD54Tryx2R5fquyBTu1dwB3OiIX7%2F3l%2BK620ZiC8PDhvLcPNakzP1OzASTtS03io%3D
2019-06-19 10:56:10 1560934564 DEBUG: Cart 15272: Mixed IPN
2019-06-19 10:56:11 1560934564 DEBUG: Cart 15272: First payment
2019-06-19 10:56:11 1560934564 DEBUG: Cart 15272: Validating order
2019-06-19 10:56:12 1560934564 DEBUG: Cart 15272: Order 2732 validated, creating details
2019-06-19 10:56:12 1560934564 DEBUG: Cart 15272: Order 2732 / Le paiement a été autorisé par E-Transactions.
Premier paiement de 167.00 € réalisé.
Tous les paiements sont réalisés.

2019-06-19 12:12:11 1560939131 DEBUG: URL to check 2
2019-06-19 12:12:11 1560939131 DEBUG: Checking E-Transactions URL https://tpeweb.e-transactions.fr/load.html
2019-06-19 12:12:11 1560939131 DEBUG:   Valid url found: https://tpeweb.e-transactions.fr/cgi/MYchoix_pagepaiement.cgi
2019-06-19 12:12:11 1560939131 DEBUG: Cart 15350: Redirecting customer to E-Transactions (CARTE, EUROCARD_MASTERCARD).
2019-06-19 12:13:16 1560939196 DEBUG: Call params: M=12500&R=15350%20-%20Dimitri%20Bonnard&T=512092371&A=860373&B=0&C=MasterCard&D=2005&E=00000&F=Y&G=O&I=FRA&J=21&N=529097&O=Y&P=3DSECURE&Q=12%3A12%3A12&S=104299134&W=19062019&Y=FRA&Z=0-0&K=ejKamTDvP6pJ%2FsysaotD67ha9a%2Flbit5tpUBzCdd1FLGiaJcjddcbrgQRjKDNo3FlJHBy9r53akVwG5%2BkLdq%2BOyp7X7SiVaKiZc5S2x6jYDriH%2FJUiKJSkAOp1THKJ8wqLIUzLaWZ3sqiWP2J3hiqFK8CELp03LZjLsHlLRJ19w%3D
2019-06-19 12:13:22 1560939196 DEBUG: Cart 15350: Mixed IPN
2019-06-19 12:13:22 1560939196 DEBUG: Cart 15350: First payment
2019-06-19 12:13:22 1560939196 DEBUG: Cart 15350: Validating order
2019-06-19 12:13:23 1560939196 DEBUG: Cart 15350: Order 2733 validated, creating details
2019-06-19 12:13:23 1560939196 DEBUG: Cart 15350: Order 2733 / Le paiement a été autorisé par E-Transactions.
Premier paiement de 125.00 € réalisé.
Tous les paiements sont réalisés.

2019-06-19 12:57:56 1560941876 DEBUG: URL to check 2
2019-06-19 12:57:56 1560941876 DEBUG: Checking E-Transactions URL https://tpeweb.e-transactions.fr/load.html
2019-06-19 12:57:56 1560941876 DEBUG:   Valid url found: https://tpeweb.e-transactions.fr/cgi/MYchoix_pagepaiement.cgi
2019-06-19 12:57:56 1560941876 DEBUG: Cart 15347: Redirecting customer to E-Transactions (CARTE, VISA).
2019-06-19 12:58:55 1560941935 DEBUG: Call params: M=36000&R=15347%20-%20Geoffrey%20Vion&T=512109055&A=694101&B=0&C=Visa&D=2003&E=00000&F=Y&G=O&I=FRA&J=41&N=497401&O=Y&P=3DSECURE&Q=12%3A57%3A57&S=104311217&W=19062019&Y=FRA&Z=0-0&K=lCx578bWD5OuMpHwlS7WcH9dnHRvrICvgZ6rjQKJRctW%2FgUEFvr7SDchS2%2Bvxu4C8OaeoBLw55IvBFd82U7767waYtkbQ4vwXWhZKSoYcwmpq3pnFKCt1CpoW72m2JIyChgqn53X%2BXBdJYFzrY6vTaZKfUWNgASMUkYkQpDN9As%3D
2019-06-19 12:59:00 1560941940 DEBUG: Cart 15347: Customer is back from E-Transactions payment page. Waiting order validation (loop 0).
2019-06-19 12:59:01 1560941941 DEBUG: Cart 15347: Customer is back from E-Transactions payment page. Waiting order validation (loop 1).
2019-06-19 12:59:01 1560941935 DEBUG: Cart 15347: Mixed IPN
2019-06-19 12:59:01 1560941935 DEBUG: Cart 15347: First payment
2019-06-19 12:59:01 1560941935 DEBUG: Cart 15347: Validating order
2019-06-19 12:59:02 1560941942 DEBUG: Cart 15347: Customer is back from E-Transactions payment page. Waiting order validation (loop 2).
2019-06-19 12:59:02 1560941935 DEBUG: Cart 15347: Order 2734 validated, creating details
2019-06-19 12:59:02 1560941935 DEBUG: Cart 15347: Order 2734 / Le paiement a été autorisé par E-Transactions.
Premier paiement de 360.00 € réalisé.
Tous les paiements sont réalisés.

2019-06-19 12:59:03 1560941943 DEBUG: Cart 15347: Customer is back from E-Transactions payment page. Payment success.
